Project 1: Wrangling, Exploration, Visualization
…
sat_sum_orbit_class

## # A tibble: 5 x 2
##   `Class of Orbit` `n()`
##   <chr>            <int>
## 1 Elliptical          78
## 2 GEO                560
## 3 LEO               3979
## 4 MEO                139
## 5 <NA>                 3

sat_sum_purpose

## # A tibble: 27 x 2
##    Purpose                                        `n()`
##    <chr>                                          <int>
##  1 Communications                                  2977
##  2 Communications/Maritime Tracking                   5
##  3 Communications/Navigation                          1
##  4 Communications/Technology Development              6
##  5 Earth Observation                                982
##  6 Earth Observation/Communications                   2
##  7 Earth Observation/Communications/Space Science     1
##  8 Earth Observation/Earth Science                    1
##  9 Earth Observation/Space Science                    1
## 10 Earth Observation/Technology Development           8
## #  with 17 more rows

Below are the summary statistics mean and sd, respectively, for the satellite dataset numerical values sorted on Orbit type and class.

sat_sum_orbit_mean

## # A tibble: 25 x 3
## # Groups:   Type of Orbit [16]
##    `Type of Orbit`       `Class of Orbit` `mean(\`Launch Mass (kg.)\`)`
##    <chr>                 <chr>                                    <dbl>
##  1 Cislunar              Elliptical                              3660  
##  2 Deep Highly Eccentric Elliptical                              2083. 
##  3 Elliptical            LEO                                     6812. 
##  4 Equatorial            LEO                                       95.6
##  5 Equatorial            MEO                                      670  
##  6 Molniya               Elliptical                                NA  
##  7 Non-Polar Inclined    Elliptical                               733  
##  8 Non-Polar Inclined    LEO                                       NA  
##  9 Non-Polar Inclined    MEO                                       NA  
## 10 Polar                 LEO                                       NA  
## #  with 15 more rows

sat_sum_orbit_sd

## # A tibble: 25 x 3
## # Groups:   Type of Orbit [16]
##    `Type of Orbit`       `Class of Orbit` `sd(\`Launch Mass (kg.)\`)`
##    <chr>                 <chr>                                  <dbl>
##  1 Cislunar              Elliptical                              NA  
##  2 Deep Highly Eccentric Elliptical                            1602. 
##  3 Elliptical            LEO                                   9266. 
##  4 Equatorial            LEO                                    126. 
##  5 Equatorial            MEO                                     25.1
##  6 Molniya               Elliptical                              NA  
##  7 Non-Polar Inclined    Elliptical                               0  
##  8 Non-Polar Inclined    LEO                                     NA  
##  9 Non-Polar Inclined    MEO                                     NA  
## 10 Polar                 LEO                                     NA  
## #  with 15 more rows
…
